R - Programming with the Tidyverse
…
Converting the temperature from F to C

## we can write the formula to convert a single temp from F to C
mutate(df, temp0 = (temp0 - 32) * 5/9)

# A tibble: 455 x 21
      id treat race  apache death temp0 temp1 temp2 temp3 temp4 temp5 temp6
   <dbl> <fct> <fct>  <dbl> <fct> <dbl> <dbl> <dbl> <dbl> <dbl> <dbl> <dbl>
 1     1 Cont~ White     27 Died   35.2  93.9  93.6  93    90.3  93.2  95  
 2     2 Ibup~ Afri~     14 Alive  38.7  99    99.8  99.8  99.6 100.  100. 
 3     3 Cont~ Afri~     33 Died   38.3  98.9  97.2  NA    NA    94.8  95.5
 4     4 Ibup~ White      3 Alive  38.3 100.  100    99.5  99.7  99.1  99.3
 5     5 Cont~ White      5 Alive  38.6 101.  102.  101.  101.  101   103. 
 6     6 Ibup~ White     13 Alive  38.2 101   102.  102.  102.   99.9 100. 
 7     7 Ibup~ White     34 Died   38.4  99.7  99.5  99    99.1  98.7  99.1
 8     8 Cont~ White     11 Alive  38.3 100.  101.  100.   99.1  98.9  99.3
 9     9 Ibup~ White     25 Alive  38.2  99.7  99.9  99.7  99    98.1  98.9
10    10 Cont~ White     20 Alive  37.2  98    97    99.6  99.6 100    99  
# ... with 445 more rows, and 9 more variables: temp7 <dbl>, temp8 <dbl>,
#   temp9 <dbl>, temp10 <dbl>, temp11 <dbl>, temp12 <dbl>, temp13 <dbl>,
#   temp14 <dbl>, temp15 <dbl>
…
    "temp6",
    "temp7",
    "temp8",
    "temp9",
    "temp10",
    "temp11",
    "temp12",
    "temp13",
    "temp14",
    "temp15"
  ),
  fare_to_cel
)

# A tibble: 455 x 21
      id treat race  apache death temp0 temp1 temp2 temp3 temp4 temp5 temp6
   <dbl> <fct> <fct>  <dbl> <fct> <dbl> <dbl> <dbl> <dbl> <dbl> <dbl> <dbl>
 1     1 Cont~ White     27 Died   35.2  34.4  34.2  33.9  32.4  34.0  35  
 2     2 Ibup~ Afri~     14 Alive  38.7  37.2  37.7  37.7  37.6  37.9  37.9
 3     3 Cont~ Afri~     33 Died   38.3  37.2  36.2  NA    NA    34.9  35.3
 4     4 Ibup~ White      3 Alive  38.3  37.9  37.8  37.5  37.6  37.3  37.4
 5     5 Cont~ White      5 Alive  38.6  38.6  38.8  38.6  38.6  38.3  39.2
 6     6 Ibup~ White     13 Alive  38.2  38.3  38.6  38.9  39.1  37.7  38.1
 7     7 Ibup~ White     34 Died   38.4  37.6  37.5  37.2  37.3  37.1  37.3
 8     8 Cont~ White     11 Alive  38.3  37.9  38.2  37.9  37.3  37.2  37.4
 9     9 Ibup~ White     25 Alive  38.2  37.6  37.7  37.6  37.2  36.7  37.2
10    10 Cont~ White     20 Alive  37.2  36.7  36.1  37.6  37.6  37.8  37.2
# ... with 445 more rows, and 9 more variables: temp7 <dbl>, temp8 <dbl>,
#   temp9 <dbl>, temp10 <dbl>, temp11 <dbl>, temp12 <dbl>, temp13 <dbl>,
#   temp14 <dbl>, temp15 <dbl>

df %>% mutate_at(., 6:21, fare_to_cel)

# A tibble: 455 x 21
      id treat race  apache death temp0 temp1 temp2 temp3 temp4 temp5 temp6
   <dbl> <fct> <fct>  <dbl> <fct> <dbl> <dbl> <dbl> <dbl> <dbl> <dbl> <dbl>
 1     1 Cont~ White     27 Died   35.2  34.4  34.2  33.9  32.4  34.0  35  
 2     2 Ibup~ Afri~     14 Alive  38.7  37.2  37.7  37.7  37.6  37.9  37.9
 3     3 Cont~ Afri~     33 Died   38.3  37.2  36.2  NA    NA    34.9  35.3
 4     4 Ibup~ White      3 Alive  38.3  37.9  37.8  37.5  37.6  37.3  37.4
 5     5 Cont~ White      5 Alive  38.6  38.6  38.8  38.6  38.6  38.3  39.2
 6     6 Ibup~ White     13 Alive  38.2  38.3  38.6  38.9  39.1  37.7  38.1
 7     7 Ibup~ White     34 Died   38.4  37.6  37.5  37.2  37.3  37.1  37.3
 8     8 Cont~ White     11 Alive  38.3  37.9  38.2  37.9  37.3  37.2  37.4
 9     9 Ibup~ White     25 Alive  38.2  37.6  37.7  37.6  37.2  36.7  37.2
10    10 Cont~ White     20 Alive  37.2  36.7  36.1  37.6  37.6  37.8  37.2
# ... with 445 more rows, and 9 more variables: temp7 <dbl>, temp8 <dbl>,
#   temp9 <dbl>, temp10 <dbl>, temp11 <dbl>, temp12 <dbl>, temp13 <dbl>,
#   temp14 <dbl>, temp15 <dbl>

df %>% mutate_at(., vars(temp0:temp15), fare_to_cel)

# A tibble: 455 x 21
      id treat race  apache death temp0 temp1 temp2 temp3 temp4 temp5 temp6
   <dbl> <fct> <fct>  <dbl> <fct> <dbl> <dbl> <dbl> <dbl> <dbl> <dbl> <dbl>
 1     1 Cont~ White     27 Died   35.2  34.4  34.2  33.9  32.4  34.0  35  
 2     2 Ibup~ Afri~     14 Alive  38.7  37.2  37.7  37.7  37.6  37.9  37.9
 3     3 Cont~ Afri~     33 Died   38.3  37.2  36.2  NA    NA    34.9  35.3
 4     4 Ibup~ White      3 Alive  38.3  37.9  37.8  37.5  37.6  37.3  37.4
 5     5 Cont~ White      5 Alive  38.6  38.6  38.8  38.6  38.6  38.3  39.2
 6     6 Ibup~ White     13 Alive  38.2  38.3  38.6  38.9  39.1  37.7  38.1
 7     7 Ibup~ White     34 Died   38.4  37.6  37.5  37.2  37.3  37.1  37.3
 8     8 Cont~ White     11 Alive  38.3  37.9  38.2  37.9  37.3  37.2  37.4
 9     9 Ibup~ White     25 Alive  38.2  37.6  37.7  37.6  37.2  36.7  37.2
10    10 Cont~ White     20 Alive  37.2  36.7  36.1  37.6  37.6  37.8  37.2
# ... with 445 more rows, and 9 more variables: temp7 <dbl>, temp8 <dbl>,
#   temp9 <dbl>, temp10 <dbl>, temp11 <dbl>, temp12 <dbl>, temp13 <dbl>,
#   temp14 <dbl>, temp15 <dbl>
…
We can use the pivot_longer() and the pivot_wider() function to transpose our data between the two data structure. The pivot_longer() function will transpose a wide dataframe to a long dataframe. The pivot_wider() function will allow for the opposite, a long dataframe to a wide dataframe.

## here we are creating a new dataframe called 'long'
long <- df %>% pivot_longer(., cols = temp0:temp15, names_to = 'name', values_to = 'value')
long

# A tibble: 7,280 x 7
      id treat   race  apache death name  value
   <dbl> <fct>   <fct>  <dbl> <fct> <chr> <dbl>
 1     1 Control White     27 Died  temp0  35.2
 2     1 Control White     27 Died  temp1  34.4
 3     1 Control White     27 Died  temp2  34.2
 4     1 Control White     27 Died  temp3  33.9
 5     1 Control White     27 Died  temp4  32.4
 6     1 Control White     27 Died  temp5  34.0
 7     1 Control White     27 Died  temp6  35  
 8     1 Control White     27 Died  temp7  35.7
 9     1 Control White     27 Died  temp8  37.1
10     1 Control White     27 Died  temp9  36.4
# ... with 7,270 more rows

## here we are creating a new dataframe called 'wide' by converting the long dataframe back to wide format
## they are both valid formats we can work with in R

wide <- long %>% pivot_wider(., names_from = 'name', values_from = 'value')
wide

# A tibble: 455 x 21
      id treat race  apache death temp0 temp1 temp2 temp3 temp4 temp5 temp6
   <dbl> <fct> <fct>  <dbl> <fct> <dbl> <dbl> <dbl> <dbl> <dbl> <dbl> <dbl>
 1     1 Cont~ White     27 Died   35.2  34.4  34.2  33.9  32.4  34.0  35  
 2     2 Ibup~ Afri~     14 Alive  38.7  37.2  37.7  37.7  37.6  37.9  37.9
 3     3 Cont~ Afri~     33 Died   38.3  37.2  36.2  NA    NA    34.9  35.3
 4     4 Ibup~ White      3 Alive  38.3  37.9  37.8  37.5  37.6  37.3  37.4
 5     5 Cont~ White      5 Alive  38.6  38.6  38.8  38.6  38.6  38.3  39.2
 6     6 Ibup~ White     13 Alive  38.2  38.3  38.6  38.9  39.1  37.7  38.1
 7     7 Ibup~ White     34 Died   38.4  37.6  37.5  37.2  37.3  37.1  37.3
 8     8 Cont~ White     11 Alive  38.3  37.9  38.2  37.9  37.3  37.2  37.4
 9     9 Ibup~ White     25 Alive  38.2  37.6  37.7  37.6  37.2  36.7  37.2
10    10 Cont~ White     20 Alive  37.2  36.7  36.1  37.6  37.6  37.8  37.2
# ... with 445 more rows, and 9 more variables: temp7 <dbl>, temp8 <dbl>,
#   temp9 <dbl>, temp10 <dbl>, temp11 <dbl>, temp12 <dbl>, temp13 <dbl>,
#   temp14 <dbl>, temp15 <dbl>

Extracting specific observations

## to extract specific observations we can use the filter() function, and state a criteria. Here we are extracting only patients in the Control group
df %>% filter(., treat == 'Control')

# A tibble: 231 x 21
      id treat race  apache death temp0 temp1 temp2 temp3 temp4 temp5 temp6
   <dbl> <fct> <fct>  <dbl> <fct> <dbl> <dbl> <dbl> <dbl> <dbl> <dbl> <dbl>
 1     1 Cont~ White     27 Died   35.2  34.4  34.2  33.9  32.4  34.0  35  
 2     3 Cont~ Afri~     33 Died   38.3  37.2  36.2  NA    NA    34.9  35.3
 3     5 Cont~ White      5 Alive  38.6  38.6  38.8  38.6  38.6  38.3  39.2
 4     8 Cont~ White     11 Alive  38.3  37.9  38.2  37.9  37.3  37.2  37.4
 5    10 Cont~ White     20 Alive  37.2  36.7  36.1  37.6  37.6  37.8  37.2
 6    12 Cont~ White     14 Alive  38.6  38.7  39.2  39.1  39.1  39.7  38.3
 7    14 Cont~ White     23 Alive  37.9  37.6  37.4  37.4  37.4  37.6  37.6
 8    16 Cont~ White     16 Died   38.1  38.0  37.7  36.9  36.9  36.4  NA  
 9    17 Cont~ Afri~     17 Alive  38.1  37.7  38.3  37.8  39.3  37.6  38.2
10    18 Cont~ White     14 Alive  38.7  38.7  38.6  38.3  38.3  38.3  38.4
# ... with 221 more rows, and 9 more variables: temp7 <dbl>, temp8 <dbl>,
#   temp9 <dbl>, temp10 <dbl>, temp11 <dbl>, temp12 <dbl>, temp13 <dbl>,
#   temp14 <dbl>, temp15 <dbl>

## here we are extracting white control patients
df %>% filter(., treat == 'Control' & race == 'White')

# A tibble: 156 x 21
      id treat race  apache death temp0 temp1 temp2 temp3 temp4 temp5 temp6
   <dbl> <fct> <fct>  <dbl> <fct> <dbl> <dbl> <dbl> <dbl> <dbl> <dbl> <dbl>
 1     1 Cont~ White     27 Died   35.2  34.4  34.2  33.9  32.4  34.0  35  
 2     5 Cont~ White      5 Alive  38.6  38.6  38.8  38.6  38.6  38.3  39.2
 3     8 Cont~ White     11 Alive  38.3  37.9  38.2  37.9  37.3  37.2  37.4
 4    10 Cont~ White     20 Alive  37.2  36.7  36.1  37.6  37.6  37.8  37.2
 5    12 Cont~ White     14 Alive  38.6  38.7  39.2  39.1  39.1  39.7  38.3
 6    14 Cont~ White     23 Alive  37.9  37.6  37.4  37.4  37.4  37.6  37.6
 7    16 Cont~ White     16 Died   38.1  38.0  37.7  36.9  36.9  36.4  NA  
 8    18 Cont~ White     14 Alive  38.7  38.7  38.6  38.3  38.3  38.3  38.4
 9    21 Cont~ White     24 Died   39.3  39.4  39.8  39.9  38.6  36.8  36.8
10    23 Cont~ White     14 Alive  38.4  38.7  38.2  37.8  38.2  36.8  38.1
# ... with 146 more rows, and 9 more variables: temp7 <dbl>, temp8 <dbl>,
#   temp9 <dbl>, temp10 <dbl>, temp11 <dbl>, temp12 <dbl>, temp13 <dbl>,
#   temp14 <dbl>, temp15 <dbl>

## here we are extracting white control patients who died
df %>% filter(., treat == 'Control' & race == 'White' & death == 'Died')

# A tibble: 54 x 21
      id treat race  apache death temp0 temp1 temp2 temp3 temp4 temp5 temp6
   <dbl> <fct> <fct>  <dbl> <fct> <dbl> <dbl> <dbl> <dbl> <dbl> <dbl> <dbl>
 1     1 Cont~ White     27 Died   35.2  34.4  34.2  33.9  32.4  34.0  35  
 2    16 Cont~ White     16 Died   38.1  38.0  37.7  36.9  36.9  36.4  NA  
 3    21 Cont~ White     24 Died   39.3  39.4  39.8  39.9  38.6  36.8  36.8
 4    27 Cont~ White     18 Died   38.3  37.6  37.6  36.8  37.7  36.7  38.0
 5    56 Cont~ White     18 Died   39.1  39.3  39.5  39.5  39.8  39.6  39.9
 6    80 Cont~ White     27 Died   37.7  37.7  37.2  37.9  38.2  37.9  37.8
 7    82 Cont~ White      8 Died   38.1  36.4  36.6  34.4  33.0  34.4  34.8
 8    89 Cont~ White     21 Died   34.6  37.3  37.4  37.6  37.1  37.4  37.4
 9   102 Cont~ White     15 Died   38.6  38.5  38.6  38.3  37.6  37.1  36.7
10   104 Cont~ White      7 Died   38.0  38.0  38.0  38.2  37.7  37.3  39.0
# ... with 44 more rows, and 9 more variables: temp7 <dbl>, temp8 <dbl>,
#   temp9 <dbl>, temp10 <dbl>, temp11 <dbl>, temp12 <dbl>, temp13 <dbl>,
#   temp14 <dbl>, temp15 <dbl>

## here we are extracting white control patients with apache score greater than 10 or who died
df %>% filter(., (treat == 'Control' & race == 'White' ) & (apache > 10 | death == 'Died'))

# A tibble: 121 x 21
      id treat race  apache death temp0 temp1 temp2 temp3 temp4 temp5 temp6
   <dbl> <fct> <fct>  <dbl> <fct> <dbl> <dbl> <dbl> <dbl> <dbl> <dbl> <dbl>
 1     1 Cont~ White     27 Died   35.2  34.4  34.2  33.9  32.4  34.0  35  
 2     8 Cont~ White     11 Alive  38.3  37.9  38.2  37.9  37.3  37.2  37.4
 3    10 Cont~ White     20 Alive  37.2  36.7  36.1  37.6  37.6  37.8  37.2
 4    12 Cont~ White     14 Alive  38.6  38.7  39.2  39.1  39.1  39.7  38.3
 5    14 Cont~ White     23 Alive  37.9  37.6  37.4  37.4  37.4  37.6  37.6
 6    16 Cont~ White     16 Died   38.1  38.0  37.7  36.9  36.9  36.4  NA  
 7    18 Cont~ White     14 Alive  38.7  38.7  38.6  38.3  38.3  38.3  38.4
 8    21 Cont~ White     24 Died   39.3  39.4  39.8  39.9  38.6  36.8  36.8
 9    23 Cont~ White     14 Alive  38.4  38.7  38.2  37.8  38.2  36.8  38.1
10    25 Cont~ White     22 Alive  35.7  36.8  37.4  38.3  38.4  37.9  37.4
# ... with 111 more rows, and 9 more variables: temp7 <dbl>, temp8 <dbl>,
#   temp9 <dbl>, temp10 <dbl>, temp11 <dbl>, temp12 <dbl>, temp13 <dbl>,
#   temp14 <dbl>, temp15 <dbl>

Selecting specific columns or variables

## perhaps we wanted to extract a dataframe that only contains id, treat, race, apache, and death
df %>% select(., id, treat, race, apache, death)

# A tibble: 455 x 5
      id treat       race             apache death
   <dbl> <fct>       <fct>             <dbl> <fct>
 1     1 Control     White                27 Died 
 2     2 Ibuprofenol African American     14 Alive
 3     3 Control     African American     33 Died 
 4     4 Ibuprofenol White                 3 Alive
 5     5 Control     White                 5 Alive
 6     6 Ibuprofenol White                13 Alive
 7     7 Ibuprofenol White                34 Died 
 8     8 Control     White                11 Alive
 9     9 Ibuprofenol White                25 Alive
10    10 Control     White                20 Alive
# ... with 445 more rows

## perhaps we wanted to extract only the id and the temp variables
df %>% select(., id, temp0:temp15)

# A tibble: 455 x 17
      id temp0 temp1 temp2 temp3 temp4 temp5 temp6 temp7 temp8 temp9 temp10
   <dbl> <dbl> <dbl> <dbl> <dbl> <dbl> <dbl> <dbl> <dbl> <dbl> <dbl>  <dbl>
 1     1  35.2  34.4  34.2  33.9  32.4  34.0  35    35.7  37.1  36.4   36.6
 2     2  38.7  37.2  37.7  37.7  37.6  37.9  37.9  37.2  37.7  37.7   37.6
 3     3  38.3  37.2  36.2  NA    NA    34.9  35.3  NA    36.2  37.3   NA  
 4     4  38.3  37.9  37.8  37.5  37.6  37.3  37.4  37.6  36.7  36.6   36.4
 5     5  38.6  38.6  38.8  38.6  38.6  38.3  39.2  38.2  38.1  37.7   37.6
 6     6  38.2  38.3  38.6  38.9  39.1  37.7  38.1  38.6  38.8  37.5   38.2
 7     7  38.4  37.6  37.5  37.2  37.3  37.1  37.3  36.8  37.3  37.2   36.7
 8     8  38.3  37.9  38.2  37.9  37.3  37.2  37.4  37.8  37.9  37.4   37.1
 9     9  38.2  37.6  37.7  37.6  37.2  36.7  37.2  36.7  36.7  36.7   36.7
10    10  37.2  36.7  36.1  37.6  37.6  37.8  37.2  38.1  38.3  38.6   37.7
# ... with 445 more rows, and 5 more variables: temp11 <dbl>,
#   temp12 <dbl>, temp13 <dbl>, temp14 <dbl>, temp15 <dbl>

## perhaps we wanted to extract all the variables except outcome e.g. death
df %>% select(., -death)

# A tibble: 455 x 20
      id treat race  apache temp0 temp1 temp2 temp3 temp4 temp5 temp6 temp7
   <dbl> <fct> <fct>  <dbl> <dbl> <dbl> <dbl> <dbl> <dbl> <dbl> <dbl> <dbl>
 1     1 Cont~ White     27  35.2  34.4  34.2  33.9  32.4  34.0  35    35.7
 2     2 Ibup~ Afri~     14  38.7  37.2  37.7  37.7  37.6  37.9  37.9  37.2
 3     3 Cont~ Afri~     33  38.3  37.2  36.2  NA    NA    34.9  35.3  NA  
 4     4 Ibup~ White      3  38.3  37.9  37.8  37.5  37.6  37.3  37.4  37.6
 5     5 Cont~ White      5  38.6  38.6  38.8  38.6  38.6  38.3  39.2  38.2
 6     6 Ibup~ White     13  38.2  38.3  38.6  38.9  39.1  37.7  38.1  38.6
 7     7 Ibup~ White     34  38.4  37.6  37.5  37.2  37.3  37.1  37.3  36.8
 8     8 Cont~ White     11  38.3  37.9  38.2  37.9  37.3  37.2  37.4  37.8
 9     9 Ibup~ White     25  38.2  37.6  37.7  37.6  37.2  36.7  37.2  36.7
10    10 Cont~ White     20  37.2  36.7  36.1  37.6  37.6  37.8  37.2  38.1
# ... with 445 more rows, and 8 more variables: temp8 <dbl>, temp9 <dbl>,
#   temp10 <dbl>, temp11 <dbl>, temp12 <dbl>, temp13 <dbl>, temp14 <dbl>,
#   temp15 <dbl>

## we can also use a numerical indicator of the column number to select a range of columns, e.g the first 5 columns
df %>% select(., 1:5)

# A tibble: 455 x 5
      id treat       race             apache death
   <dbl> <fct>       <fct>             <dbl> <fct>
 1     1 Control     White                27 Died 
 2     2 Ibuprofenol African American     14 Alive
 3     3 Control     African American     33 Died 
 4     4 Ibuprofenol White                 3 Alive
 5     5 Control     White                 5 Alive
 6     6 Ibuprofenol White                13 Alive
 7     7 Ibuprofenol White                34 Died 
 8     8 Control     White                11 Alive
 9     9 Ibuprofenol White                25 Alive
10    10 Control     White                20 Alive
# ... with 445 more rows
…
